{
    "file": "pflow-variables.json",

    "jet" : {
        "ints": [
            "HadronConeExclTruthLabelPdgId",
            "HadronConeExclTruthLabelChildPdgId",
            "LeptonDecayLabel",
            "n_truth_promptLepton",
            "TauDecayLabel"
        ],
        "floats": [
            "HadronConeExclTruthLabelPt",
            "HadronConeExclTruthLabelLxy",
            "HadronConeExclTruthLabelDR",
            "HadronConeExclTruthLabelChildPt",
            "HadronConeExclTruthLabelChildLxy"
        ]
    },
    "btagging" : {
        "chars": [
            "softMuon_isDefaults",
            "rnnip_isDefaults"
        ],
        "ints": [
            "JetFitterFlip_nVTX",
            "JetFitterFlip_nSingleTracks",
            "JetFitterFlip_nTracksAtVtx",
            "JetFitterFlip_N2Tpair",
            "IP3D_nTrks"
        ],
        "floats": [
            "SV1_correctSignificance3d",
            "softMuon_pt",
            "softMuon_dR",
            "softMuon_eta",
            "softMuon_phi",
            "softMuon_qOverPratio",
            "softMuon_momentumBalanceSignificance",
            "softMuon_scatteringNeighbourSignificance",
            "softMuon_pTrel",
            "softMuon_ip3dD0",
            "softMuon_ip3dZ0",
            "softMuon_ip3dD0Significance",
            "softMuon_ip3dZ0Significance",
            "softMuon_ip3dD0Uncertainty",
            "softMuon_ip3dZ0Uncertainty",
            "JetFitterFlip_energyFraction",
            "JetFitterFlip_mass",
            "JetFitterFlip_significance3d",
            "JetFitterFlip_deltaphi",
            "JetFitterFlip_deltaeta",
            "JetFitterFlip_massUncorr",
            "JetFitterFlip_dRFlightDir"
        ],
        "halves": [
            "DIPS20231205_pu",
            "DIPS20231205_pc",
            "DIPS20231205_pu"
        ]
    },
    
    "event": {
        "customs" :  [
            "primaryVertexDetectorZ"
        ]
    }
    
}
